<?xml version="1.0" encoding="utf-8"?>
<!-- Generator: Adobe Illustrator 18.1.0, SVG Export Plug-In . SVG Version: 6.00 Build 0)  -->
<svg version="1.1" id="Layer_1" xmlns="http://www.w3.org/2000/svg" xmlns:xlink="http://www.w3.org/1999/xlink" x="0px" y="0px"
	 viewBox="0 0 94.3 104.3" enable-background="new 0 0 94.3 104.3" xml:space="preserve">
<g>
	<path fill="#FFFFFF" d="M9.7,34.3c0,0-12.3,8.5-7,29.2c0,0,3,7.7,9.7,12.3c0,0,6.3,36,55.7,24.7c0,0,23.3-1.3,25.3-38
		c0,0-0.1-12.2-9.4-21.6c0,0,2.1-12.1-10.3-19.4l-4-11C69.7,10.5,27,10.5,9.7,34.3z"/>
	<g>
		<path d="M17.8,27.5c0,0-1,5.4-0.3,9.8s2.7,14.2-3.4,22.6c0,0,4.7-15.9-2.7-22.6L17.8,27.5z"/>
		<path d="M21.8,40.5c0,0,12.5-17.4,32-17c0,0,3,0.7,0.1,1.9C53.9,25.3,42.4,22.7,21.8,40.5z"/>
		<path d="M27.9,40.9c0,0,8-2.8,14.7-5.6s11.1-2.5,16.8,1.5c0,0-5.8,1.1-7.2,2.4c-1.4,1.3-4.6,2.2-10.9,1.6
			C35,40.4,33.1,40,27.9,40.9z"/>
		<path d="M73.3,36.3c0,0,2.7-5.9,7.1-2.4c4.4,3.5,4.4,6.8,4.4,6.8s-4.3-1.4-5.3-2.2C78.5,37.9,75.8,36.5,73.3,36.3z"/>
		<path fill="#E2392F" d="M32.7,58.7c0,0,17.5,8.3,29.5,6.2c0,0,5.8-2.7,8.6,1c0,0,1.3,0.1,2.8-1.6c0,0,9.6,0.5,14.4-4.6
			C88,59.7,72.9,82.1,32.7,58.7z"/>
		<path fill="#E2392F" d="M84.8,64.6c0,0-3.7,4.6-5.7,7.8c-2,3.3-5.8,9.6-18.1,7.1s-12-11.8-22.9-17C38.1,62.5,64.8,80.6,84.8,64.6z
			"/>
		<path d="M69.2,45.6c0,0,3.7,5.3,5.9,7.6s1.9,4.3-2.8,5.4C67.7,59.7,59.8,58.7,57,56c0,0,8.5-0.5,11.4-0.9c2.9-0.4,2.5-0.5,2.2-2.2
			C70.1,51.3,70.4,48.2,69.2,45.6z"/>
		<path d="M3.6,42.3c0,0-7.3,15.7-1,24.3s8.1,8.3,10.4,15.2c2.3,6.8,14.9,21.3,29.6,22.3s31.9-1,40.5-8.6
			c8.6-7.6,18.2-40.2,1.8-54.7c0,0,2.5-20.2-24-24c0,0,16.2,1.5,22,16.4c0,0,1.8,3.4,1.3,7.7c0,0,15.2,14.5,5.6,39.9
			s-42.4,25.2-60.1,16.3S12.9,68.6,12.9,68.6s-4.6,7.1-9.2-3.8S3.6,42.3,3.6,42.3z"/>
		<g>
			<path fill="#E2392F" d="M76,22.3c0,0-7.4-10.3-39.8-0.5c-14.2,4.3-23.8,17-23.8,17s-3.5,0.8-3.5-1.5s-0.5-4.6,1.5-7.8
				S31-4.2,62,5.3C77.7,10.2,76,22.3,76,22.3z"/>
			<g>
				<path d="M76.9,18.2c-0.1-0.4-0.2-0.7-0.3-1.1c-0.1-0.4-0.2-0.7-0.4-1c-0.1-0.3-0.3-0.6-0.4-0.9c-0.2-0.3-0.3-0.6-0.5-0.8
					c-0.1-0.2-0.2-0.4-0.2-0.6c-0.1-0.2-0.2-0.3-0.3-0.5c-0.2-0.3-0.4-0.7-0.6-1c-0.4-0.6-0.9-1.1-1.3-1.6c-0.5-0.5-0.9-0.9-1.4-1.3
					C71,9,70.5,8.6,70,8.2L69.7,8l-0.4-0.2c-0.3-0.2-0.5-0.3-0.8-0.5c-0.3-0.2-0.5-0.3-0.8-0.5c-0.3-0.2-0.6-0.3-0.9-0.4
					c-0.6-0.3-1.2-0.6-1.9-0.8c-0.7-0.2-1.4-0.5-2.2-0.8c-2.7-0.8-5.1-1.4-7.6-1.6c-2.4-0.3-4.8-0.4-7.6-0.3
					c-0.9,0.3-3.5,0.5-6.4,1.2c-0.7,0.2-1.4,0.4-2.2,0.6c-0.7,0.2-1.4,0.5-2.1,0.7c-1.3,0.5-2.6,1.1-3.4,1.6
					c-1.2,0.6-2.1,1.2-2.5,1.5c-0.4,0.3-0.2,0.3,0.7-0.2c-0.4,0.2-0.8,0.4-1.1,0.6c-0.3,0.2-0.5,0.3-0.7,0.4c-0.4,0.2-0.7,0.4-1,0.5
					c-0.5,0.3-1,0.6-2.3,1.5c0,0,0.2-0.2,0.4-0.4c0.2-0.2,0.4-0.4,0.4-0.4c-0.2,0.1-0.4,0.3-0.7,0.4c-0.2,0.2-0.5,0.3-0.7,0.5
					c-0.5,0.3-1,0.7-1.5,1.1l-1.1,1.1c-1.5,1.1-2.5,2.2-3.6,3.2c-1,1.1-2.1,2.2-3.4,3.7c0.9-1,0.7-0.7,0.4-0.2
					c-0.4,0.5-0.9,1.2-0.8,1.1c-0.5,0.4-2,2.3-1.5,1.6c-1.1,1.3-2,2.7-2.8,3.9c-0.8,1.2-1.5,2.3-2,3.1c0,0,0,0.1-0.1,0.2
					c-0.1,0.1-0.1,0.3-0.2,0.4c-0.1,0.3-0.2,0.6-0.2,0.6c-0.7,2.1-0.6,3.8-0.6,5.8c0,0,0.1,0.3,0.1,0.3c0,0.3,0.1,0.7,0.4,1
					c0.3,0.3,0.7,0.5,1.1,0.6C10.6,39,11,39,11.4,39c0.2,0,0.4,0,0.6,0c0.2,0,0.4,0,0.6-0.1c0.1-0.1,0.2-0.3,0.3-0.4
					c2.2-2.6,5.1-5.7,7.7-8.1c1.4-1,1.8-1.4,2.1-1.7c0.3-0.3,0.6-0.6,1.9-1.6c1.7-1.1,4.7-2.9,5.9-3.3c-1.3,0.6-1.9,1.1-2.6,1.5
					c-0.7,0.5-1.4,0.9-2.6,1.7c0.2-0.1,0.1,0-0.2,0.2c-0.3,0.2-0.8,0.5-1.2,0.9c-0.8,0.6-1.5,1.2-0.4,0.5c2.2-1.7,4.9-3.4,7.7-4.8
					c2.8-1.3,5.7-2.2,8.2-3c-0.1,0.1,0.3,0,0.9-0.1c0.3-0.1,0.7-0.2,1.1-0.3c0.4-0.1,0.9-0.2,1.3-0.3c0.9-0.2,2-0.5,2.9-0.7
					c0.9-0.2,1.8-0.4,2.3-0.5l0.2,0c1.9-0.3,3.4-0.6,6.4-1c0.5-0.1,0.9-0.1,1.4-0.2c0.5-0.1,0.9-0.1,1.4-0.1c0.9,0,1.8-0.1,2.7-0.1
					c0.9,0,1.8,0.1,2.6,0.1c0.4,0,0.8,0.1,1.2,0.1c0.4,0.1,0.8,0.1,1.2,0.2c2.3,0.4,4.7,0.8,6.8,1.7c2.1,0.8,3.6,1.8,4.3,2.6
					c-0.9-1.1-2.1-1.9-3.4-2.5c-0.6-0.3-1.2-0.5-1.9-0.8l-0.5-0.2c-0.2-0.1-0.3-0.1-0.5-0.1c-0.3-0.1-0.6-0.2-0.9-0.3
					c-2.5-0.6-4.9-0.9-7-1.2c3.9,0.3,4.2,0.3,7.2,0.8c0,0-0.4-0.1-0.8-0.3c-0.4-0.1-0.8-0.2-0.8-0.2s0.3,0,0.7,0.1
					c0.3,0.1,0.6,0.1,0.6,0.1c-0.6-0.3,1.1,0.1,0.9,0c0,0-0.3-0.1-0.7-0.2c-0.2-0.1-0.5-0.1-0.8-0.2c-0.3-0.1-0.6-0.1-0.9-0.2
					c-0.6-0.1-1.2-0.2-1.6-0.3c-0.5,0-0.8-0.1-0.8-0.1c0.6,0.1,1,0.1,1.2,0.2c0.2,0.1,0.2,0.1,0.1,0.1c-0.1,0-0.3,0-0.5,0
					c-0.2,0-0.5,0-0.7,0c0,0-0.6-0.1-1.2-0.1c-0.3,0-0.6-0.1-0.8-0.1c-0.2,0-0.4,0-0.4,0c0.6,0.1,2.1,0.3,0.3,0.1
					c-1,0-2.3,0-3.4-0.1c0,0,0.1,0,0.3,0c0.2,0,0.4,0,0.7-0.1c0.5,0,1-0.1,1-0.1c-0.8,0-1.5,0-2.1,0c-0.7,0-1.3,0-2,0
					c-1.3,0-2.6,0.1-4.1,0.3l-0.9-0.1c0,0-0.7,0.1-1.4,0.2c-0.7,0.1-1.4,0.2-1.4,0.2l0.3-0.1c0,0-0.8,0.1-1.7,0.3
					c-0.4,0.1-0.8,0.1-1.2,0.2c-0.3,0.1-0.5,0.1-0.5,0.1c-1.8,0.4-2,0.6-2.3,0.7c-1.4,0.3-2.7,0.6-3.2,0.8c0,0,0.4-0.1,0.8-0.3
					c0.4-0.1,0.8-0.2,0.8-0.2s-0.4,0.1-0.7,0.1c-0.4,0.1-0.7,0.2-0.7,0.2c1-0.2-1.2,0.4-1.5,0.6c-1.6,0.4-2.2,0.6-2.6,0.7
					c-0.4,0.1-0.7,0.1-1.7,0.4c-0.5,0.2-1.1,0.4-1.6,0.6c-0.5,0.2-1,0.4-1.5,0.6c-0.9,0.4-1.6,0.7-1.6,0.8
					c-3.7,1.7-7.3,4.1-10.3,6.5c0,0-0.1,0.1-0.2,0.2c-0.1,0.1-0.3,0.3-0.4,0.4c-0.3,0.3-0.6,0.6-0.6,0.6c-1.6,1.3-2.8,2.4-3.8,3.6
					c-0.5,0.6-1.1,1.1-1.6,1.8c-0.3,0.3-0.5,0.7-0.8,1c-0.1,0.2-0.3,0.4-0.4,0.5c-0.1,0.1-0.1,0.2-0.2,0.3l0,0.1c0,0-0.1,0-0.1,0
					c-0.1,0-0.3,0-0.4,0l0.3-0.1c0,0-0.1,0-0.3,0c-0.2,0-0.5,0-0.7,0c-0.3,0-0.5-0.1-0.6-0.1c-0.1-0.1-0.2-0.1-0.2-0.1
					c-0.1-0.1-0.2-0.2-0.2-0.5c0-0.4,0-0.7,0-1.1c0-0.7-0.1-1.3-0.1-1.9c0-1.2,0.2-2.4,1.2-4.1c0.2-0.4,0.5-0.9,0.8-1.3
					c0.3-0.4,0.5-0.8,0.7-1.1c0.4-0.7,0.8-1.3,1.1-1.8c0.7-1,1.1-1.7,1.4-2.4c1.2-1.7,3.1-3.6,4.4-5c0,0-0.2,0.2-0.4,0.5
					c-0.2,0.2-0.4,0.5-0.4,0.5l1.1-1.1c0.9-1,1.5-1.5,2.1-2c0.3-0.3,0.6-0.6,1-1c0.4-0.4,0.9-0.8,1.6-1.4c1-0.7,1.6-1.3,2.1-1.7
					c0.5-0.4,0.8-0.7,1.1-0.9c0.5-0.5,0.7-0.8,1.5-1.4c0,0,0.3-0.1,0.6-0.4c0.4-0.2,0.9-0.5,1.4-0.8c0.5-0.3,1-0.5,1.4-0.7
					c0.2-0.1,0.4-0.2,0.5-0.2c0.1-0.1,0.2-0.1,0.2-0.1l-0.1,0c1.2-0.7,1.6-1,2.6-1.3c0.5-0.2,1-0.4,1.9-0.7c0.4-0.1,0.9-0.3,1.5-0.5
					c0.6-0.2,1.3-0.4,2-0.6l-0.3-0.1c1.1-0.2,1.9-0.4,2.7-0.6c0.4-0.1,0.9-0.2,1.4-0.3C45.4,4,46,3.9,46.7,3.8
					c0.3,0,0.9-0.1,1.5-0.1c0.6,0,1.4,0,2.1,0c0.2,0,0.4,0,0.6,0l0.6,0c0.4,0,0.8,0,1.2,0.1c0.4,0,0.8,0,1.1,0.1
					c0.4,0,0.7,0.1,1,0.1c0.6,0.1,1.2,0.2,1.7,0.3c0.5,0.1,1,0.2,1.5,0.3c1,0.1,1.9,0.4,2.7,0.6c0.4,0.1,0.9,0.2,1.3,0.3
					c0.4,0.1,0.8,0.3,1.3,0.4c0.4,0.1,0.9,0.3,1.3,0.4c0.5,0.2,0.9,0.4,1.4,0.6c1.2,0.6,2.1,1.2,2.8,1.6c0.4,0.2,0.6,0.4,0.9,0.6
					c0.2,0.2,0.4,0.3,0.4,0.5l-0.4-0.3l0.6,0.8l0.2-0.1c1.1,1.1,2.7,2.7,3.1,4c0,0,0.1,0.2,0.3,0.4c0.2,0.3,0.4,0.7,0.6,1.1
					c0.2,0.4,0.4,0.8,0.5,1.1c0.1,0.2,0.1,0.3,0.2,0.4c0,0.1,0.1,0.1,0.1,0.1c-0.2-0.4-0.3-0.9-0.5-1.3c-0.2-0.4-0.4-0.9-0.6-1.3
					l0,0.1c-0.1-0.2-0.3-0.5-0.5-0.8c-0.2-0.3-0.4-0.7-0.6-1c-0.3-0.3-0.5-0.6-0.7-0.9c-0.1-0.1-0.2-0.3-0.3-0.4
					c-0.1-0.1-0.2-0.2-0.3-0.3c0,0,0.1,0.1,0.1,0.1c0.1,0.1,0.2,0.2,0.3,0.3c0.2,0.2,0.4,0.5,0.4,0.5c-0.9-1.2-0.1-0.3,0.2,0
					c0.2,0.3,0.4,0.5,0.6,0.8c0.1,0.2,0.3,0.4,0.4,0.6c0.2,0.3,0.4,0.5,0.5,0.7c0.1,0.2,0.2,0.4,0.4,0.6c0.1,0.1,0.2,0.3,0.3,0.5
					c0.1,0.2,0.2,0.4,0.3,0.7c0.1,0.2,0.2,0.6,0.3,0.9c0.1,0.3,0.1,0.4,0,0.2c0.1,0.3,0.2,0.8,0.3,1.3c0.1,0.5,0.2,1.1,0.2,1.6
					c0.1,1.1,0.1,2,0.1,2.1c0,0.1,0,0.2,0,0.3C76.7,21.9,77,20.3,76.9,18.2z"/>
			</g>
		</g>
		<g>
			<path d="M29.7,17.3c-0.3,0.1-0.5,0.3-0.7,0.4c-0.3,0-0.5,0.1-0.7,0.2c-0.2,0.1-0.4,0.2-0.6,0.4c-0.2,0.1-0.3,0.3-0.5,0.4
				c-0.2,0.1-0.4,0.3-0.7,0.4c-0.9,0.5-1.4,1-2.2,1.5c0,0.6-1.5,1-1.9,1.8c-0.3,0.3-0.4,0.7-0.1,0.5c-0.5,0.4-0.5,0.2-0.8,0.6l0-0.2
				c-0.2,0.1-0.4,0.1-0.5,0.3L21,23.8c-0.6,0.3-0.7,0.8-1.2,1.2c0.4-0.2-0.1,0.2,0,0.3c-0.1,0-0.5,0.3-0.4,0.1c-0.5,0.4-0.6,1-1.1,1
				l-0.1,0.2c-0.2,0.3-0.5,0.4-0.8,0.7l0,0.1c-0.1,0.2-0.4,0.5-0.6,0.6c-0.5,0.4-0.8,1.1-1.1,1.6c-0.5,0.4-0.1,0.4-0.4,0.8
				c-0.3,0.2-0.6,0.7-0.8,0.8c0.3-0.4,0.2-0.6,0.6-0.9c-0.2,0.1,0.5-0.7,0.1-0.5c-0.5,0.9-1.5,1.6-1.9,2.4c-0.2-0.2-0.9,0.7-1.1,1.1
				l-0.1,0c-0.3,0.2-0.4,0.4-0.7,0.9c-0.4,0.5-0.8,1-1.3,1.3C9.4,36,9,36.9,9,37.3c0.8-0.6,1.1-1.6,1.9-1.8
				c-0.5,0.5-0.4,0.6-0.7,1.1l0.2-0.2l-0.1,0.2c0.1,0,0,0.2,0.1,0.3l0.5-0.6c-0.3,0.3-0.2,0-0.2-0.2l0.3-0.3c-0.1,0-0.3,0.2-0.1-0.1
				c0.1-0.1,0.2-0.3,0.4-0.4l-0.1,0.4c0.2-0.5,0.8-0.5,1-1l0.3,0l0.3-0.4l0,0.1l0.4-0.4c0.2-0.3,0.1-0.4,0.1-0.4
				c0.2-0.2,0.3-0.4,0.4-0.4l-0.1,0.3l0.2-0.2c-0.1,0.1,0.1-0.2,0.1-0.3c0.4-0.4,0.3-0.3,0.6-0.5c0.2-0.3,0.6-0.6,0.5-0.7
				c0.5-0.4,1-1,1.5-1.4l0.1-0.3c0.6-0.5,0.7-0.8,1.3-1.4l0,0.1l0.2-0.4c0.5-0.4,0.5-0.7,1.1-1.1c0.6-0.5,0.7-0.8,0.7-1.2
				c0.2-0.3,0.6-0.5,0.9-0.7l-0.1,0.2l0.3-0.1c0.3-0.3,0.4-0.3,0.8-0.8c0.7-0.5,0.4-0.7,0.6-1l0.8-0.4l0,0c0.2-0.5,0.2-0.3,1.1-1
				l-0.1-0.1c0.4-0.1,0.4-0.4,0.8-0.7c0.2-0.2,0.9-0.4,1.2-0.8c0.4-0.2,0.6-0.4,0.8-0.6c0.2-0.2,0.4-0.5,0.8-0.6
				c0.4-0.1,0.6-0.5,0.8-0.3l-0.1,0l0.2,0.1l-0.1-0.2c0.3,0,0.6-0.3,0.9-0.2l0.5-0.5c-0.1,0.1-0.3,0.1-0.5,0.1l0,0
				c-0.2,0-0.5,0.2-0.7,0.3l0.2-0.1c-0.3,0.1-0.1-0.1,0-0.1c0.5-0.1,0.3-0.2,0.7-0.4c0.1,0,0.3,0,0.2,0c0.2-0.1,0.9-0.1,0.9-0.3
				c0,0,0,0,0.1,0C30.5,17.7,30.2,17.5,29.7,17.3z"/>
		</g>
		<g>
			<path fill="#E2392F" d="M52.7,16c0,0-4.8-0.3-9.1,1.8s-11.1,6.1-17.7,4.9c0,0,1.3-3.4,0.4-8.1C25.3,9.9,27.4,4.7,26,3.8
				c0,0,4.8-2.4,14.4-1.1S49.3,4,51.8,4S65.2,4.5,71,3.2s15.1-1.6,18.1-2.4c3-0.8,0.9,0.6,1.5,2.7c0.6,2,3.9,10.4,3.3,13.5
				c-0.6,3.2-0.6,4.7-4.8,2.5c-4.2-2.2-8.7-4.8-15.4-3.9C67,16.5,52.7,16,52.7,16z"/>
			<g>
				<path fill="#FFFFFF" d="M56.5,3.6c0.8-0.1,2.6-0.1,2.6,0c0-0.1,0-0.1,1.3-0.2c0,0.1,1.1,0,1.8,0c-0.6-0.1-1.4,0-3,0
					c-1.5,0.2-4.5-0.1-5.8,0C54.3,3.4,55.3,3.6,56.5,3.6z"/>
				<path fill="#FFFFFF" d="M63,4L63.2,4c0,0-0.2,0-0.4,0c-0.2,0-0.6,0-0.9,0c-0.6,0-1.3,0.1-1.3,0.1C61.2,4.1,62.9,4,63,4z"/>
				<path d="M71.1,3.1c-0.2,0.1,1.1-0.1,1.1,0c0-0.1,0.5-0.2,1.1-0.3c0.6-0.1,1.4-0.2,2-0.3l0.4-0.2c-0.5,0-1.5,0.1-2.6,0.3
					c-1.1,0.2-2.3,0.4-3.5,0.6L71.1,3.1z"/>
				<path fill="#FFFFFF" d="M73.2,2.8c0,0,0.2-0.1,0.4-0.1c0.2,0,0.4-0.1,0.4-0.1C73.3,2.7,71.9,3,73.2,2.8z"/>
				<path fill="#FFFFFF" d="M71.6,2.6c-1.8,0.3,1.1-0.1-0.7,0.2C71.4,2.7,72.1,2.6,71.6,2.6z"/>
				<path d="M79.1,1.8c0,0-1,0.1-1.9,0.3c-0.5,0.1-0.9,0.1-1.3,0.2c-0.4,0.1-0.6,0.1-0.6,0.1s0.4,0,0.8-0.1c0.4,0,0.8-0.1,0.8-0.1
					L79.1,1.8z"/>
				<path d="M79.3,2.1c-0.5,0.1-1.3,0.1-0.6,0c1.4,0,2.2-0.3,3.5-0.3L81,1.9c0.2,0.1,2.5-0.4,2.5-0.2c1.6-0.3-1.3,0,0.9-0.4
					c-2,0.3-3.5,0.3-5.2,0.5c0.5,0,0.7,0,1.4-0.1c-1.2,0.1-2.8,0.4-4.2,0.6C77.1,2.4,78.1,2.1,79.3,2.1z"/>
				<path d="M85.4,1.5c0.6-0.1,1.5-0.2,2.2-0.3c0.7-0.1,1.3-0.3,1.4-0.4c-0.7,0.1-1.1,0.2-1.4,0.2c-0.3,0.1-0.5,0.1-0.8,0.2
					c-0.4,0-1.7,0.2-1.2,0C85.8,1.3,84.8,1.5,85.4,1.5z"/>
				<path d="M90.3,0.8c0,0,0.1,0,0.1,0c0.1,0,0.2,0.1,0.2,0.1c0,0.1,0,0.2,0,0.3c0,0.1,0,0.1,0,0.1s0-0.1,0-0.3
					c0-0.1-0.1-0.3-0.1-0.3c0,0,0,0,0-0.1c0,0,0-0.1,0-0.1c0,0-0.1,0-0.2,0c-0.1,0-0.2,0-0.4,0.1c-0.3,0.1-0.6,0.2-1.3,0.3
					C89.6,0.9,89.7,0.7,90.3,0.8z"/>
				<path d="M91.1,0.4c0.2,0.2,0.2,0.5,0.1,0.8c0,0.3-0.1,0.5-0.2,0.8C91,2.2,91,2.6,91,3c0-0.3,0-0.6,0-0.9l0-0.1l0.1-0.2
					c0-0.1,0.1-0.3,0.1-0.4c0-0.3,0-0.5-0.1-0.7c-0.1-0.2-0.4-0.3-0.6-0.4c-0.2,0-0.4,0-0.6,0c-0.4,0.1-0.7,0.1-0.8,0.2
					c0,0,0.1-0.1,0.1-0.1c-0.1,0-1.3,0.4-2.2,0.6c0.4-0.1,0.8-0.1,1.2-0.2c0.2,0,0.4-0.1,0.6-0.1c0.1,0,0.2,0,0.3-0.1
					c0.1,0,0.2-0.1,0.4-0.1c0.5-0.1,0.9-0.1,1.2,0C91,0.4,91.1,0.5,91.1,0.4z"/>
				<path d="M88.8,0.3c0,0,0.1,0,0.1,0c0.1,0,0.2-0.1,0.4-0.1c0.1,0,0.2,0,0.3-0.1c0.1,0,0.2,0,0.3-0.1c0.2,0,0.3,0,0.3,0
					S90,0,89.9,0c-0.1,0-0.2,0-0.3,0.1c-0.1,0-0.2,0-0.3,0.1c-0.2,0-0.3,0.1-0.4,0.1C88.9,0.3,88.8,0.3,88.8,0.3z"/>
				<path d="M90.8,4.3c0,0-0.2-0.5-0.3-1c-0.1-0.5-0.1-1-0.1-1c0,0-0.1,0.5,0,0.5c0,0,0,0.1,0,0.2c0,0.1,0.1,0.3,0.1,0.5
					C90.7,4,90.8,4.3,90.8,4.3z"/>
				<path d="M90.8,2c-0.1,0.4-0.1,0.5,0,0.5c0,0,0-0.1,0-0.2c0-0.1,0.1-0.2,0.1-0.2c0,0,0,0.1,0,0.5c0,0.1,0,0,0-0.2
					c0-0.1,0-0.2,0-0.3c0-0.1,0-0.2,0.1-0.5c0.1-0.4,0.2-0.8,0-1.1c-0.1-0.1-0.2-0.2-0.3-0.2c-0.1,0-0.2,0-0.2,0
					c0.1,0,0.3,0.1,0.4,0.2c0.1,0.2,0.1,0.4,0.1,0.6c0,0.2-0.1,0.4-0.1,0.6C90.9,1.9,90.9,2,90.8,2z"/>
				<path d="M91.2,5.6l0.6,1.5L91.2,5.6z"/>
				<path d="M92.4,9.5l0.2,0.3c0.4,1.5,1,3.6,1,4.7c0-0.3,0.3,0.6,0.1-0.8c-0.1-0.2-0.2-0.7-0.2-0.6c-0.1-0.6,0-0.5-0.1-0.9
					c-0.3-1-0.7-2.5-1-3.3c0.1,0.4,0.1,0.5,0.2,0.8c-0.6-1.6-0.4-2-0.9-2.7C92,7.7,92.2,8.7,92.4,9.5z"/>
				<path d="M92.9,9.2l-0.4-1.3c0.2,0.4,0.5,1.6,0.7,1.8c0-0.1-0.4-1.4-0.2-1c-0.3-0.1-0.6-1.8-0.6-1.1c-0.6-1.7,0-0.6-0.7-2.4
					l-0.3-0.5C92.1,6.8,92.2,7.2,92.9,9.2z"/>
				<path d="M94.1,14.5c0,0,0,0.2,0,0.3c0,0.2,0,0.3,0,0.3l0.1-0.4c0.1,0.8,0.1,1.5,0,2.2c-0.2,0.6-0.3,1.2-0.5,1.7
					c-0.2,0.5-0.4,1-0.7,1.4c-0.3,0.4-0.8,0.4-1.2,0.4c-0.6,0-1.1-0.2-1.7-0.5c-0.5-0.2-1-0.5-1.5-0.8c-1-0.6-2-1.1-3.1-1.6
					c-1.1-0.4,1,0.5,1.1,0.6c-0.4,0-1-0.6-1.5-0.7c-0.1,0,0.4,0.3,1.1,0.7c0.7,0.4,1.5,0.8,1.9,1.1c0.8,0.4,0.8,0.4,1.1,0.4
					c0.1,0.1,0.3,0.2,0.6,0.4c0.3,0.1,0.5,0.3,0.6,0.4c0.2,0.1,0.4,0.1,0.7,0.2c0.2,0,0.4,0.1,0.6,0.1c0.4,0.1,0.9,0.1,1.2-0.2
					c0.4-0.2,0.6-0.6,0.8-1c0.1-0.4,0.2-0.8,0.3-1.3c0.1-0.3,0,0.1,0,0.4c-0.1,0.3-0.2,0.7-0.1,0.4c0,0,0.1-0.3,0.1-0.5
					c0.1-0.2,0.1-0.5,0.1-0.5l0,0.1c0-0.3,0.1-0.7,0.2-1.2c0-0.2,0.1-0.5,0.1-0.7c0-0.2,0-0.5,0-0.7c0-0.9-0.2-1.8-0.2-2.2
					c0.1,0.7,0.1,1.2-0.1,0.4l0-0.7c0,0,0-0.1-0.1-0.3c-0.1-0.2-0.1-0.4-0.2-0.6c-0.1-0.4-0.3-0.8-0.3-0.8
					C93.8,12.7,93.9,14.2,94.1,14.5z"/>
				<path d="M93.9,12.5c-0.4-2.1-0.1,0.3-0.6-2c0,0,0.2,0.6,0.3,1.2c0.1,0.3,0.1,0.6,0.2,0.8c0.1,0.2,0.1,0.4,0.1,0.4L93.9,12.5z"/>
				<path fill="#FFFFFF" d="M90.8,20.5c0,0-0.2-0.1-0.5-0.2c-0.2-0.1-0.5-0.2-0.5-0.2c0.1,0.1,0.3,0.2,0.5,0.3
					c0.2,0.1,0.4,0.1,0.6,0.2C91.3,20.5,91.4,20.6,90.8,20.5z"/>
				<polygon fill="#FFFFFF" points="87.3,18.8 87.9,18.9 87,18.6 				"/>
				<path d="M84.3,17.2c-0.7-0.2,0.1,0.2,0.9,0.5C84.5,17.3,84.1,17.1,84.3,17.2z"/>
				<path fill="#FFFFFF" d="M78.8,15.3c1.8,0.2-1.6-0.2-0.3-0.2c-0.1,0-0.4,0-0.5,0.1C78,15.2,78.1,15.2,78.8,15.3z"/>
				<path d="M73.1,15c0.6-0.1,0.9-0.1,1-0.1C73.6,15,73.2,15,73.1,15z"/>
				<path d="M93.2,19.3c0.1-0.2,0.1-0.4,0.2-0.6C93.3,18.9,93.3,19.1,93.2,19.3z"/>
				<path d="M93.1,19.6c0-0.1,0.1-0.2,0.1-0.4C93.2,19.4,93.1,19.5,93.1,19.6z"/>
				<path d="M81.7,15.7C81.7,15.7,81.7,15.7,81.7,15.7c0,0,0.1,0,0.1,0.1L81.7,15.7z"/>
				<path d="M68.1,3.8c-0.3,0-0.6,0.1-0.8,0.1C67.6,3.8,67.8,3.8,68.1,3.8C68.1,3.8,68.1,3.8,68.1,3.8z"/>
				<path d="M67.2,3.6c0.7-0.1,1.1-0.1,1.6-0.1c0.5,0,1.1-0.1,2.3-0.3c-0.5,0.1-0.9,0.2-1.4,0.3c-0.5,0.1-1,0.2-1.5,0.2
					C66.8,3.7,69.1,3.6,67.2,3.6z"/>
				<path d="M86.4,1C86.4,1,86.4,1,86.4,1C86.6,0.9,86.5,0.9,86.4,1z"/>
				<path fill="#FFFFFF" d="M28.4,22.8L28.4,22.8c0,0,0.3,0,0.7,0c0.2,0,0.3,0,0.4,0c0.1,0,0.2,0,0.2,0s-0.1,0-0.2,0
					c-0.1,0-0.3,0-0.4,0C28.7,22.8,28.4,22.8,28.4,22.8z"/>
				<path fill="#FFFFFF" d="M28.2,22.7c0,0-0.5,0-1.1-0.1c-0.2,0-0.4-0.1-0.6-0.1c-0.2,0-0.3,0-0.3,0s0.2,0,0.4,0.1
					c0.1,0,0.1,0,0.2,0c0.1,0,0.2,0,0.3,0c0.2,0,0.5,0,0.8,0c1.2,0,2.8-0.2,4.3-0.5c1.6-0.4,3.1-0.9,4.2-1.4
					c1.1-0.5,1.8-0.8,1.8-0.8l-0.4,0.2c0,0-0.5,0.3-1.4,0.6c-0.9,0.4-2.2,0.8-3.4,1.2c-1.3,0.3-2.6,0.6-3.5,0.7
					C28.7,22.7,28.1,22.7,28.2,22.7z"/>
				<path fill="#FFFFFF" d="M27.6,22.8c-0.3,0-0.6,0-0.9,0c-0.1,0-0.3,0-0.4-0.1l-0.2,0l-0.1,0c0,0-0.1,0-0.1,0
					c0.1-0.2,0.2-0.5,0.2-0.8c0.1-0.3,0.1-0.6,0.2-1c0,0.3-0.1,0.7-0.1,0.9c0,0.3-0.1,0.5-0.1,0.7c0,0,0,0,0.1,0l0.1,0
					c0.1,0,0.1,0,0.2,0c0.1,0,0.3,0,0.4,0.1c0,0,0,0,0.1,0c0.1,0,0.2,0,0.3,0C27.4,22.7,27.6,22.8,27.6,22.8z"/>
				<path fill="none" stroke="#000000" stroke-width="0" stroke-linecap="round" stroke-linejoin="round" d="M26.1,20.2
					c0.1-0.3,0.1-0.7,0.1-1c0-0.3,0-0.6,0-0.8c0.1,0.1,0.1,0.4,0,0.8C26.3,19.5,26.2,19.9,26.1,20.2z"/>
				<path d="M25.8,18.3c0-0.1,0-0.2,0-0.3C25.8,18.2,25.8,18.3,25.8,18.3L25.8,18.3z"/>
				<path d="M25.8,18.4L25.8,18.4C25.8,18.6,25.8,18.5,25.8,18.4z"/>
				<path d="M25.8,18c0-0.3-0.1-0.6-0.1-0.8l0,0.3c0-0.4-0.1-1.1-0.1-1.3c0,0.8,0.1,0.8,0.2,0.8c0,0,0-0.3,0-0.6c0-0.2,0-0.3,0-0.4
					c0-0.1,0-0.2,0-0.2C25.9,16.1,25.8,16.9,25.8,18z"/>
				<path fill="none" stroke="#000000" stroke-width="0" stroke-linecap="round" stroke-linejoin="round" d="M25.4,14.1
					c0,0,0,0.1,0,0.2c0,0.1,0.1,0.3,0.1,0.5c0.1,0.3,0.1,0.6,0.1,0.6C25.6,15.7,25.4,14.6,25.4,14.1z"/>
				<path d="M25.3,12c0,0.3,0.1,1.7,0.1,0.9c0,0.2,0,0.5,0.1,0.8c-0.1-0.5-0.1-0.5-0.1-0.6C25.4,13,25.3,12.8,25.3,12z"/>
				<path d="M25.5,13.6c0,0.1,0,0.2,0.1,0.4C25.5,13.9,25.5,13.7,25.5,13.6z"/>
				<path fill="none" stroke="#000000" stroke-width="0" stroke-linecap="round" stroke-linejoin="round" d="M30.6,22.8
					C30.4,22.8,30.4,22.8,30.6,22.8L30.6,22.8z"/>
				<path d="M25.6,9.3l0.1-0.5C25.6,8.9,25.6,9.1,25.6,9.3L25.6,9.3z"/>
				<path d="M52.7,15.5c-0.9,0-1.8,0-2.7,0.1c-0.5,0-1,0.1-1.5,0.2c-0.5,0.1-1.1,0.2-1.7,0.4c0.1,0.1-1,0.3-1.1,0.5
					c0.6-0.2,0.4-0.1-0.4,0.1c-0.7,0.3-1.9,0.8-3,1.4c-2.2,1.2-4.6,2.3-3.6,1.9l0.5-0.3l-0.5,0.4c-1.2,0.5-2.8,1-3.6,1.4
					c-0.1,0,0.5-0.2,1.5-0.6c0.9-0.4,2.1-0.9,3.3-1.5c1.2-0.6,2.4-1.2,3.2-1.6c0.4-0.2,0.8-0.4,1-0.5c0.2-0.1,0.4-0.2,0.3-0.1
					c0.1,0,0,0-0.3,0.2c-0.2,0.1-0.4,0.2-0.6,0.3c-0.2,0.1-0.5,0.3-0.8,0.4c-1.2,0.6-2.8,1.5-4.6,2.3c-1.7,0.8-3.6,1.5-5,1.9
					c-0.4,0.1-0.7,0.2-1,0.3c-0.3,0.1-0.6,0.1-0.8,0.2c-0.5,0.1-0.7,0.1-0.8,0.2l-0.2-0.1c-0.4,0.1-0.9,0.2-1.2,0.2
					c-0.4,0-0.8,0.1-1.1,0.1c-0.2,0-0.4,0-0.5,0c-0.2,0-0.3,0-0.6,0c-0.2,0-0.4,0-0.6,0l-0.3,0l-0.2,0l-0.1,0c0,0-0.1,0-0.1,0
					c0-0.1,0.1-0.2,0.1-0.3l0.3-0.5c-0.1,0.3-0.2,0.5-0.2,0.7c0,0,0,0,0,0l0,0l0.1,0c0,0,0.1,0,0.1,0c0.1,0,0.2,0,0.3,0
					c0.2,0,0.3,0,0.5,0c0.4,0,0.7,0,1.2,0c-0.5,0-0.9,0-1.2-0.1c-0.2,0-0.3,0-0.5-0.1c-0.1,0-0.1,0-0.2,0l-0.1,0c0,0-0.1,0-0.1,0
					c0.1-0.3,0.2-0.6,0.3-0.9c0.1-0.3,0.1-0.7,0.2-1.1c-0.2,0-0.3,1.3-0.1-0.7c0.1-0.6,0.1,0.8,0.3-1c0-0.5,0-0.9,0-1.2
					c0-0.3-0.1-0.5-0.1-0.7c-0.1-0.4-0.1-0.8-0.3-1.7c0,0,0,0.3,0.1,0.6c0,0.3,0,0.6,0,0.6c0-0.3-0.1-0.8-0.2-1.3
					c0-0.2-0.1-0.5-0.1-0.7c0-0.2-0.1-0.4-0.1-0.6c0.1,0.8,0.5,2.8,0.6,2.7c-0.1-0.8-0.3-2.6-0.4-3.3c0,0,0,0.1,0.1,0.2
					c0,0.1,0.1,0.2,0.1,0.2c0-0.8-0.2-1.2-0.1-2.2c0-0.9-0.1,0.6-0.2,0c0-0.2,0.2-2,0.2-2.6c-0.3,0.4-0.1,2.1-0.3,3.3
					c0,0,0-0.4,0-0.9c0-0.4,0-0.8,0-0.8c-0.1-0.5-0.1,0.1-0.1,0.9c0,0.7,0.1,1.6,0,1.3c-0.3-1.3,0.2-2.7,0.1-3.9
					c-0.1,0.4-0.2,1.2-0.2,1.9c0,0.7-0.1,1.3-0.1,1.1c0.1-0.9,0-1.6,0-2.8l0.3-1.5c0-0.6-0.1-0.1-0.1,0.4c0.1-0.5,0.2-1.1,0.2-1.7
					c0-0.6,0.1-1.2,0-1.9c0-0.3,0-0.5-0.1-0.7c-0.2-0.1,0.1-0.3,0.1-0.6c0.2-0.1,0.5-0.2,0.7-0.3c0.3-0.1,0.4-0.1,0.6-0.2
					c0.3-0.1,0.7-0.2,1-0.3c0.7-0.1,1.3-0.3,2-0.3C32,2,30.4,2.2,31.2,2c0.5,0,1.2,0,1.8-0.1c0.3,0,0.7-0.1,1-0.1c0.3,0,0.6,0,0.9,0
					c0.3,0,0.9-0.1,0.6-0.2c0,0-0.6,0-1.3,0c-0.6,0.1-1.3,0.1-1.3,0.1c0.1-0.1-0.3-0.2-1.2-0.1c0.2,0.1,0,0.1-0.3,0.1
					c-0.3,0-0.8,0.1-1.3,0.2c-0.5,0-1,0.1-1.5,0.2c-0.4,0.1-0.7,0.2-0.7,0.3l0-0.1c-0.3,0.1-0.6,0.2-0.9,0.3l-0.2,0.1
					c-0.1,0-0.2,0.1-0.4,0.1l-0.7,0.3c0,0.4-0.1,0.6-0.1,0.7c0,0.2,0,0.4,0,0.7c0,0.1,0,0.2,0,0.2l0-0.1c0,0,0,0.1,0,0.4
					c0,0.2,0,0.6,0,1c0,0.9-0.2,2-0.3,2.9c0-0.5,0.4-3.5,0.1-1.8c0-0.4,0.1-0.8,0.1-1.2c0-0.2,0-0.5,0-0.7c0-0.1,0-0.2,0-0.3
					c0-0.1,0-0.1,0-0.2l0-0.2c0-0.3,0-0.6,0-0.8c0-0.1,0-0.4,0.1-0.7C26,3,26.2,2.9,26.5,2.8c0.3-0.1,0.4-0.1,0.6-0.2
					c0.3-0.1,0.7-0.2,1-0.3c0,0-0.1,0-0.2,0c-0.1,0-0.2,0-0.2,0c2.6-0.8,6-1,8.9-0.8l-0.9,0.1c0.5,0,1.1,0.1,1.6,0.1
					c0.6,0.1,1.1,0.1,1.6,0.1c-1.2-0.1-0.6-0.1-0.4-0.1c1.7,0.1,4,0.5,6.2,0.7c0,0-0.1,0,0,0L47,2.7c1.1,0.2,1.5,0.3,2.1,0.4
					c0.4,0,1.4,0.1,1,0c-0.2,0-0.4-0.1-0.6-0.1c1.1,0,0.8,0.1,2.2,0c-1.1,0.1,0.3,0.2,0.2,0.3c1.7,0,0.2-0.2,0.4-0.2
					c2.1,0.1,2.4,0.2,4.5,0.2c0.1-0.1-1.5-0.1-1.7-0.1c0.6,0,1.3,0,1.4,0l-1.3-0.1c1.1,0.1,2.2,0.1,3.2,0.1c0.5,0,1.1,0,1.7,0
					c0.6,0,1.1,0,1.7,0l-0.2,0c0,0,0.4,0,0.7,0c0.4,0,0.7,0,0.7,0s-0.1,0-0.3,0.1c-0.1,0-0.3,0.1-0.3,0.1c0.8-0.1,1.7,0,2.1-0.1
					l-0.3,0l1-0.1l-1,0.2c0.6,0,1.4-0.1,2.2-0.2c0.8-0.1,1.8-0.3,2.8-0.4c0.1,0,0,0.1-0.4,0.1c-0.3,0.1-0.8,0.2-1.3,0.2
					c-1,0.1-2,0.2-2.2,0.4c0.7,0,1.9-0.1,2.3-0.2c-0.1,0-0.6,0-1.1,0c0.4-0.1,1-0.1,1.5-0.2c0.5-0.1,1-0.2,1.6-0.2
					c1-0.1,2-0.4,2.6-0.6l-1.4,0.2c0.8-0.2,1.5-0.2,2-0.3c0.5,0,0.9-0.1,1.2-0.2c0,0-0.3,0.1-0.6,0.2c-0.3,0.1-0.6,0.2-0.6,0.2
					c0.8-0.2,1.7-0.3,2.6-0.5c0.9-0.1,1.8-0.2,2.6-0.4c0-0.1-2.2,0.3-2.1,0.2L77,1.5c2.4-0.2,0.7,0,3.6-0.2l0-0.1
					c1,0,3.5-0.5,2.6-0.2l-0.8,0l0.1,0.1l3.3-0.4c-0.3,0.1,1.3-0.1,0.9,0c0,0,0.3-0.1,0.6-0.1c0.1,0,0.3-0.1,0.4-0.1
					c0.1,0,0.2,0,0.2,0c0.6,0.1-2.2,0.5-2.3,0.6c0.1,0.1,0.6,0,0.9-0.1c-1.5,0.3-2.2,0.1-3.7,0.3L82,1.4l0-0.1
					c-0.6,0.1-1.1,0.2-1.3,0.3c-1.5,0-3,0.3-5.2,0.6c1.8-0.3-1.2,0-0.9,0c-1,0.1-3.4,0.8-4.3,0.8c-0.6,0,1.2-0.3-0.2-0.1
					c-0.9,0.2-1.5,0.3-0.9,0.3c-0.2,0-0.5,0.1-0.8,0.1c-0.3,0-0.5,0.1-0.8,0.1c-0.5,0.1-1.1,0.1-1.6,0.2c-1.1,0.1-2.3,0.1-3.4,0.2
					c0,0,0.1,0,0.3,0c0.1,0,0.3-0.1,0.3-0.1c-1.4,0-2.7,0.1-3.4,0.2c-0.2,0-0.3,0-0.1-0.1c-1.8-0.1-2.3,0.2-5.1,0.1
					c0.2,0.1,1.5,0.1,2.4,0.1L56.7,4c2.5,0,5.3,0,7.3-0.2L63.1,4c1.8,0.1,1.2-0.2,2.9-0.1c1.2-0.2-0.9,0,0-0.1
					c0.9,0-0.2,0.2,1.2,0.1c-2.7,0.3-5.6,0.4-8.5,0.4c-2.9,0-5.9-0.1-8.7-0.1c-0.1,0,0.2,0.1,0.5,0.1c-1,0.1-5.4-0.6-9.6-1.2
					c-2.1-0.3-4.2-0.5-5.7-0.5c-0.4,0-0.8,0-1.1,0c-0.3,0-0.6,0.1-0.8,0.1c-0.5,0.1-0.8,0.1-0.8,0.1c-0.3,0,0.6-0.1-0.6-0.1
					c-0.1,0-0.4,0.1-0.1,0.1c-0.4,0-0.8,0.1-1.2,0.1C30.1,3,29.6,3,29.2,3.1c-0.4,0.1-0.9,0.2-1.3,0.3c-0.2,0.1-0.5,0.1-0.7,0.2
					c-0.2,0.1-0.4,0.1-0.5,0.2c-0.1,0.1-0.5,0.1-0.2,0.3c0.1,0.1,0.1,0.2,0.2,0.4c0.2,0.7,0.1,1.4,0,2.1c-0.1,0.7-0.2,1.4-0.3,2
					c0.1-0.1,0,0.7,0.1,0.7c-0.1,0.6-0.2,1.5-0.2,2.3c0,0.8,0.1,1.6,0.1,2.2c0,0,0-0.1,0-0.2c0-0.1,0-0.2,0-0.2s0,0.2,0.1,0.6
					c0.1,0.3,0.1,0.8,0.2,1.3c0.1,0.5,0.2,0.9,0.2,1.3c0,0.4,0,0.6,0,0.6c0,0.1,0-0.4,0-0.7c0.1,0.8,0,1,0,1.1c0,0,0,0.1,0,0.3
					c0,0.2,0,0.4,0,0.6c0,0.4,0,0.8,0,0.8c-0.1,0.6-0.1,1.1-0.3,1.7l-0.1,0.4l-0.1,0.4c0,0.2-0.1,0.4-0.2,0.6c0,0,0,0,0,0l0.1,0
					l0.1,0l0.3,0c0.2,0,0.3,0,0.6,0c0.5,0,1,0,1.6,0c1,0,2.1-0.2,3.1-0.5c2.1-0.5,4.1-1.3,6.1-2.1c0.7-0.4,1.3-0.8,2.6-1.4l-0.6,0.3
					c1.2-0.7,0.1,0,1.2-0.6c0.7-0.4,0.1-0.3-0.8,0.3c-0.6,0.3-0.3,0,0.2-0.2c1-0.5,2-1,3-1.4c0.5-0.2,1-0.4,1.6-0.6
					c0.5-0.1,1-0.3,1.6-0.4C48.8,15.4,50.8,15.3,52.7,15.5z"/>
				<path d="M57.6,15.2c0.5,0.1-1.9,0-0.7,0.1c3.7,0.3,9.8,0.1,14.2,0c1.2,0,1.5-0.1,2.5-0.1c0,0,0,0,0-0.1c0.6-0.1,1.4-0.2,2.2-0.2
					c0.8,0,1.6,0,2.2,0.1c0.4,0,0.6-0.1-0.1-0.1c1.9,0.1,3.2,0.7,4.2,0.9c-0.9-0.3,0.9,0.2-0.1-0.2c0.5,0.1,0.8,0.3,1.1,0.4
					c0.3,0.1,0.4,0.2,0.6,0.3c0.3,0.2,0.6,0.4,1.3,0.7c0.1,0,0.2,0-0.1-0.1c1.5,0.8,4.6,2.2,4.7,2.5c0,0,0.2,0.1,0.3,0.1
					c0.2,0.1,0.3,0.1,0.3,0.1c0.3,0.2,0.4,0.3,0.6,0.3c0.2,0.1,0.4,0.2,1,0.3c0.2,0,0.3,0,0.3,0c0,0,0,0,0,0c-0.1,0-0.2,0-0.1-0.1
					c0.1,0,0.3,0,0.5,0c0.2-0.1,0.4-0.3,0.6-0.6c0.3-0.6,0.5-1.4,0.6-1.8c0.1,0,0,0.4-0.2,0.9c-0.2,0.5-0.4,1.1-0.8,1.4
					c0,0,0.1,0,0.2-0.2c-0.1,0.1-0.2,0.2-0.4,0.3c-0.1,0-0.3,0.1-0.4,0.1c-0.1,0-0.3,0-0.4,0c-0.1,0-0.3-0.1-0.4-0.1
					c-0.6-0.2-1.1-0.4-1.6-0.7c-1-0.5-1.9-1.1-2.8-1.6c-1.8-1-3.7-1.9-5.7-2.4c-0.4-0.2-0.8-0.3-1.2-0.3c-0.3,0-0.6,0-0.8,0
					c0.2,0,0.5,0.1,0.8,0.2c0.3,0.1,0.6,0.1,0.9,0.2c0.6,0.1,1.2,0.3,1.2,0.2c0,0,0.3,0.1,0.6,0.3c0.3,0.1,0.6,0.3,0.6,0.3
					c0.5,0.2,0.4,0.3,0.6,0.5c-0.8-0.4-1.9-0.5-0.7,0c-2.3-0.7,0.9-0.2-1.2-0.8l-0.3,0c0.4,0-1.4-0.5-2-0.6l0.3,0.1
					c-1.4-0.3-2.9-0.4-4.5-0.3c-1.6,0.1-3.3,0.3-4.9,0.4c-3.4,0.2-6.8,0.3-9.9,0.3c-1.5-0.4-4.6,0.1-6-0.3c-0.7,0,1,0.1-0.3,0.2
					c-0.7,0-0.7-0.1-0.7-0.1c-0.2,0-0.4,0-0.6,0C52.2,15.6,53.4,15.3,57.6,15.2z"/>
			</g>
		</g>
		<path d="M81.8,11.2c-0.2,0-0.4,0-0.6,0c-0.2,0-0.4,0-0.5,0c-0.2,0-0.4,0-0.5,0c-0.2,0-0.3-0.1-0.5-0.1c-0.3-0.1-0.6-0.2-0.9-0.4
			c1.1,0.3,1.2,0.3,2,0.2l-0.4-0.1l0.3,0c-0.2-0.1,0.3-0.2,0.2-0.2c0,0-0.3,0-0.6,0c-0.1,0-0.3,0-0.4-0.1c-0.1,0-0.2,0-0.2,0
			c0.6,0.2,0.2,0.2,0,0.3l-0.6-0.2c0.1,0.1,0.5,0.2,0,0.2c-0.3-0.1-0.6-0.1-0.9-0.3l0.6-0.1c-0.9-0.1-1.5-0.5-2.4-0.5l-0.2-0.2
			l-0.8-0.1l0.1-0.1l-1-0.1c-0.5,0-0.6,0.1-0.7,0.2c-0.4,0-0.8,0-1,0l0.5-0.1l-0.4,0c0.3,0-0.4,0.1-0.5,0.1c-0.4,0-0.6,0-0.7,0
			c0.2,0,0.4-0.1,0.6-0.1c0.4-0.1,1.7,0.1,2.3-0.3c0.4,0,0.7-0.1,1-0.1c0.3-0.1,0.5-0.2,0.8-0.3c0.5-0.2,0.9-0.4,1.5-0.5
			c0.7-0.1,1.2-0.5,1.4-0.3l-0.1,0c0,0,0.1,0,0.2,0.1c0.1,0,0.2,0.1,0.2,0.1l0-0.2c0.4-0.1,1-0.3,1.5-0.3c0,0,0.2-0.1,0.4-0.3
			c0.2-0.2,0.4-0.3,0.4-0.3c-0.2,0.1-0.5,0.2-0.8,0.3l0,0c-0.3,0.1-0.9,0.3-1.2,0.4l0.3-0.2c-0.4,0.1-0.1-0.1,0-0.2
			C80.9,7,80.6,7,81.2,6.7c0.1,0,0.4-0.1,0.3,0c0.3-0.2,1.3-0.4,1.3-0.6c0,0,0.1,0,0.1,0c-0.2-0.2-0.8-0.3-1.4-0.4
			c-0.4,0.2-0.7,0.4-0.9,0.6c-0.8,0.2-1.4,0.5-2,0.7c-0.3,0.1-0.6,0.3-0.9,0.4c-0.3,0.1-0.7,0.2-1.2,0.3c-0.8,0.2-1.4,0.3-2.1,0.5
			c-0.3,0.1-0.7,0.1-1,0.2c-0.3,0-0.7,0.1-1.1,0.1c-0.4,0.6-3,0.2-4.1,0.5c-0.8,0.1-1.2,0.3-0.6,0.4c-1.1,0-0.8-0.2-1.7-0.1l0.3-0.2
			c-0.3,0-0.6-0.1-1-0.1L64.8,9c-1.1-0.2-1.7,0.1-2.8,0c0.8,0.1-0.3,0.1-0.3,0.2c-0.2-0.1-0.9-0.1-0.6-0.2c-1-0.1-1.9,0.2-2.4,0
			l-0.4,0.1c-0.6,0.1-1.1,0-1.7,0l-0.1,0.1c-0.4,0.1-1.1,0.1-1.4,0c-0.5,0-1,0.1-1.6,0.1c-0.5,0.1-1.1,0.2-1.6,0.3
			c-1,0-0.6,0.2-1.5,0.3c-0.6,0-1.6,0.2-1.9,0c0.8-0.1,0.9-0.3,1.7-0.3c-0.3-0.1,1.4-0.2,0.7-0.3c-0.8,0.2-1.7,0.2-2.6,0.3
			c-0.4,0-0.9,0.1-1.3,0.1c-0.4,0-0.8,0-1.2,0.1c0.1-0.1-0.4-0.2-1-0.2c-0.3,0-0.6,0-0.9,0c-0.3,0-0.5,0-0.7,0l0-0.1
			c-0.6-0.1-1-0.1-1.9-0.1C41,9.5,40.5,9.4,40,9.3c-0.5-0.1-1-0.3-1.4-0.4c-0.2-0.1-0.3-0.1-0.5-0.2c-0.2,0-0.4,0-0.5,0
			c-0.4,0-0.7-0.1-1,0c-0.6,0.1-1.2,0.3-1.4,0.4c0.4,0,0.8,0,1.2,0c0.2,0,0.4,0,0.6,0c0.2,0,0.4,0,0.5,0c0.2,0,0.4,0,0.5,0
			c0.2,0,0.3,0.1,0.5,0.1c0.3,0.1,0.6,0.2,0.9,0.4c-1.1-0.3-1.2-0.3-2-0.2l0.4,0.1l-0.3,0c0.2,0.1-0.3,0.2-0.2,0.2c0,0,0.3,0,0.6,0
			c0.1,0,0.3,0,0.4,0.1c0.1,0,0.2,0,0.2,0c-0.6-0.2-0.2-0.2,0-0.3l0.6,0.2c-0.1-0.1-0.5-0.2,0-0.2c0.3,0.1,0.6,0.1,0.9,0.3L39.4,10
			c0.9,0.1,1.5,0.5,2.4,0.5l0.2,0.2l0.8,0.1l-0.1,0.1l1,0.1c0.5,0,0.6-0.1,0.7-0.2c0.4,0,0.8,0,1,0l-0.5,0.1l0.4,0
			c-0.3,0,0.4-0.1,0.5-0.1c0.4,0,0.6,0,0.7,0c-0.2,0-0.4,0.1-0.6,0.1c-0.4,0.1-1.7-0.1-2.3,0.3c-0.4,0-0.7,0.1-1,0.1
			c-0.3,0.1-0.5,0.2-0.8,0.3c-0.5,0.2-0.9,0.4-1.5,0.5c-0.7,0.1-1.2,0.5-1.4,0.3l0.1,0c0,0-0.1,0-0.2-0.1c-0.1,0-0.2-0.1-0.2-0.1
			l0,0.2c-0.4,0.1-1,0.3-1.5,0.3c0,0-0.2,0.1-0.4,0.3c-0.2,0.2-0.4,0.3-0.4,0.3c0.2-0.1,0.5-0.2,0.8-0.3l0,0
			c0.3-0.1,0.9-0.3,1.2-0.4l-0.3,0.2c0.4-0.1,0.1,0.1,0,0.2c-0.8,0.2-0.6,0.3-1.2,0.5c-0.1,0-0.4,0.1-0.3,0
			c-0.3,0.2-1.3,0.4-1.3,0.6c0,0-0.1,0-0.1,0c0.2,0.2,0.8,0.3,1.4,0.4c0.4-0.2,0.7-0.4,0.9-0.6c0.8-0.2,1.4-0.5,2-0.7
			c0.3-0.1,0.6-0.3,0.9-0.4c0.3-0.1,0.7-0.2,1.2-0.3c0.8-0.2,1.4-0.3,2.1-0.5c0.3-0.1,0.7-0.1,1-0.2c0.3,0,0.7-0.1,1.1-0.1
			c0.4-0.6,3-0.2,4.1-0.5c0.8-0.1,1.2-0.3,0.6-0.4c1.1,0,0.8,0.2,1.7,0.1l-0.3,0.2c0.3,0,0.6,0.1,1,0.1l0.4-0.2
			c1.1,0.2,1.7-0.1,2.8,0c-0.8-0.1,0.3-0.1,0.3-0.2c0.2,0.1,0.9,0.1,0.6,0.2c1,0.1,1.9-0.2,2.4,0l0.4-0.1c0.6-0.1,1.1,0,1.7,0
			l0.1-0.1c0.4-0.1,1.1-0.1,1.4,0c0.5,0,1-0.1,1.6-0.1c0.5-0.1,1.1-0.2,1.6-0.3c1,0,0.6-0.2,1.5-0.3c0.6,0,1.6-0.2,1.9,0
			c-0.8,0.1-0.9,0.3-1.7,0.3c0.3,0.1-1.4,0.2-0.7,0.3c0.8-0.2,1.7-0.2,2.6-0.3c0.4,0,0.9-0.1,1.3-0.1c0.4,0,0.8,0,1.2-0.1
			c-0.1,0.1,0.4,0.2,1,0.2c0.3,0,0.6,0,0.9,0c0.3,0,0.5,0,0.7,0l0,0.1c0.6,0.1,1,0.1,1.9,0.1c0.5,0.1,1.1,0.1,1.5,0.3
			c0.5,0.1,1,0.3,1.4,0.4c0.2,0.1,0.3,0.1,0.5,0.2c0.2,0,0.4,0,0.5,0c0.4,0,0.7,0.1,1,0c0.6-0.1,1.2-0.3,1.4-0.4
			C82.6,11.1,82.2,11.2,81.8,11.2z M55.9,10.3l0.4-0.1c0.4,0,0.7,0,1.1,0c-0.1,0-0.2,0.1-0.2,0.1C56.7,10.4,56.3,10.4,55.9,10.3z
			 M60.8,10c0.1,0,0.2-0.1,0.2-0.1c0.4-0.1,0.8,0,1.2,0L61.9,10C61.4,9.9,61.1,10,60.8,10z"/>
		<g>
			<path fill="#E2392F" d="M61.3,2.2c-2,0.7-2.4,0.4-4.7,0.3s-5.7-2-5.1,2.4c0.6,4.4,0.9,7.2,0.6,8.5c-0.3,1.3-1.6,7,4.7,4
				c0,0,3.2-1.4,4.9-1.1c1.8,0.3,4.2,1.4,4-2c-0.1-3.4-1.1-5.8-0.8-8.3C65.4,3.3,65.1,0.8,61.3,2.2z"/>
			<g>
				<path fill="#FFFFFF" d="M52.8,17.3c0.2,0.1,0.5,0.2,0.5,0.3c0-0.1,0-0.1,0.3-0.1c0,0.1,0.3,0.1,0.5,0.1c-0.2,0-0.4,0-0.7-0.1
					c-0.2,0-0.4-0.1-0.5-0.3c-0.1-0.2-0.2-0.4-0.3-0.5C52.6,16.9,52.6,17.2,52.8,17.3z"/>
				<path fill="#FFFFFF" d="M54.5,18.2L54.5,18.2C54.5,18.1,54.5,18.1,54.5,18.2c-0.1,0-0.2,0-0.3,0c-0.1,0-0.2,0-0.3,0
					c-0.1,0-0.1,0-0.1,0C53.9,18.2,54.5,18.2,54.5,18.2z"/>
				<path d="M56.9,17.2c0,0.1,0.4,0,0.4,0.1c-0.1-0.2,0.6-0.3,0.9-0.4l0.1-0.2c-0.4,0-1.2,0.4-1.9,0.6L56.9,17.2z"/>
				<path fill="#FFFFFF" d="M57.6,17.1l0.2-0.2C57.6,17,57.2,17.2,57.6,17.1z"/>
				<path fill="#FFFFFF" d="M57,16.8c-0.6,0.2,0.4-0.1-0.2,0.2C57,16.9,57.2,16.8,57,16.8z"/>
				<path d="M59.4,16.3c0,0-0.3,0.1-0.6,0.2c-0.3,0.1-0.6,0.2-0.6,0.2s0.1,0,0.3-0.1c0.1,0,0.3,0,0.3,0L59.4,16.3z"/>
				<path d="M59.5,16.6c-0.2,0-0.4,0.1-0.2-0.1c0.5,0,0.7-0.2,1.1-0.2c0,0-0.1,0-0.2,0c-0.1,0-0.2,0.1-0.2,0.1
					c0.1,0.1,0.8-0.2,0.8,0c0.5-0.2-0.4-0.1,0.3-0.3c-0.3,0-0.6,0.1-0.9,0.1c-0.3,0-0.5,0.1-0.8,0.1c0.2,0,0.2,0,0.5,0
					c-0.4,0.1-0.9,0.3-1.3,0.4C58.9,16.8,59.2,16.6,59.5,16.6z"/>
				<path d="M61.5,16.4c0.4,0,1,0.2,1.2,0c-0.4-0.2-0.5-0.1-0.7-0.1c-0.1-0.1-0.5-0.1-0.4-0.1C61.6,16.2,61.3,16.3,61.5,16.4z"/>
				<path d="M63.1,16.6l0.3-0.1l-0.2,0l0-0.1c0,0-0.2,0.2-0.6,0.1C62.8,16.6,62.8,16.6,63.1,16.6z"/>
				<path d="M63.3,16c0.3,0.1,0.4,0.1,0.7,0.1c-0.4,0-1-0.1-1.2-0.1l0,0c0,0-0.4,0-0.8,0C62.6,16,63.4,16.3,63.3,16z"/>
				<path d="M62.7,15.9l0.3,0L62.7,15.9z"/>
				<path d="M64.4,16.7c0,0-0.7,0-0.7-0.1c0,0,0.2,0.1,0.2,0.1c0,0,0.1,0,0.3,0C64.3,16.8,64.4,16.7,64.4,16.7z"/>
				<path d="M63.7,16.3c0.5,0.1-0.2-0.1,0.2-0.1c0.1,0-0.1,0-0.3,0c-0.2,0-0.4,0-0.4,0C63.3,16.2,63.6,16.2,63.7,16.3z"/>
				<path d="M64.8,16.7c0,0,0.1-0.1,0.2-0.2c0.1-0.1,0.2-0.2,0.2-0.2s-0.1,0.1-0.2,0.2C65,16.6,64.8,16.7,64.8,16.7z"/>
				<path d="M65.9,15.7l0-0.1c0.2-0.5,0.1-1.2,0.2-1.6c-0.1,0.1-0.2-0.2-0.2,0.2c0.1,0.1,0,0.2,0.1,0.2c0,0.2-0.1,0.2-0.1,0.3
					c0,0.2,0,0.4,0,0.6c0,0.2-0.1,0.4-0.1,0.5c0.1-0.1,0.1-0.2,0.1-0.3c0,0.2,0,0.3-0.1,0.4c-0.1,0.1-0.1,0.2-0.2,0.2
					c-0.1,0.1-0.2,0.1-0.2,0.3c0.1-0.1,0.2-0.2,0.3-0.3C65.7,16,65.8,15.8,65.9,15.7z"/>
				<path d="M65.4,15.6c0,0-0.2,0.3-0.2,0.3c0-0.1,0.2-0.4,0.1-0.5c0,0-0.1,0.1-0.1,0.2c0,0.1-0.1,0.1-0.1,0c0.1,0.1,0.1,0.2,0,0.2
					c0,0.1-0.1,0.1,0.1,0.1c-0.1,0.1-0.1,0.1-0.2,0.2c0,0-0.1,0-0.1,0c0,0-0.1,0-0.3,0.1c0,0,0,0-0.1,0.1c0,0-0.1,0.1-0.1,0.1
					c0.3-0.1,0.4-0.2,0.5-0.2C65.2,16,65.3,15.8,65.4,15.6z"/>
				<path d="M65.6,13.9l0.1-0.2L65.6,13.9c-0.1-1.1,0.2-1.7,0.1-2.3c-0.3-0.7-0.2-1.5-0.3-2.2c-0.1-0.4,0,0.4,0,0.4
					c-0.2-0.1,0-0.4-0.1-0.5c-0.1,0,0,0.8,0,1.1c0.1,0.3,0.1,0.3,0.2,0.3c-0.1,0.1,0,0.4-0.1,0.5c0.2,0.6,0,0.9,0.2,1.5
					c-0.1,0.2-0.1-0.4-0.1-0.2l0,0.3l0,0c0.2,0.4,0.1,1.2,0.1,1.5c0-0.2,0.1-0.4,0.1-0.1c0,0-0.1,0.2-0.1,0.2s0.2,0.5,0.1,0.5
					C65.6,14.5,65.8,14,65.6,13.9z"/>
				<path d="M65.4,14.5c-0.1,0.6,0.2-0.1,0.1,0.6c0,0,0-0.2,0-0.4c0-0.2,0-0.4,0-0.4L65.4,14.5z"/>
				<path fill="#FFFFFF" d="M65.4,11.4l0-0.3C65.3,11.2,65.5,11.7,65.4,11.4z"/>
				<polygon fill="#FFFFFF" points="65.2,10.2 65.3,10.3 65.2,10 				"/>
				<path d="M65.2,9C65,8.8,65,9.1,65.1,9.4C65.1,9.1,65.1,9,65.2,9z"/>
				<path fill="#FFFFFF" d="M65.3,7.2c0,0.5,0-0.5,0.2-0.1C65.4,7,65.3,6.7,65.3,7.2z"/>
				<path d="M65.8,5.4c0,0.2,0,0.3-0.1,0.3C65.7,5.6,65.7,5.5,65.8,5.4z"/>
				<path d="M65.8,12.3c0,0.1,0,0.1,0,0.2C65.9,12.5,65.9,12.4,65.8,12.3z"/>
				<path d="M65.8,12.2l0,0.1C65.8,12.3,65.8,12.2,65.8,12.2z"/>
				<path d="M65.5,8L65.5,8C65.5,8,65.5,8,65.5,8L65.5,8z"/>
				<path d="M56.1,17.8c-0.1,0-0.2,0.1-0.2,0.1L56.1,17.8L56.1,17.8z"/>
				<path d="M55.8,17.7c0.4-0.2,0.5,0,1.2-0.3c-0.3,0.1-0.6,0.3-0.9,0.4C55.6,17.8,56.4,17.6,55.8,17.7z"/>
				<path d="M61.8,16.2C61.8,16.2,61.9,16.2,61.8,16.2C61.9,16.2,61.9,16.2,61.8,16.2z"/>
				<path fill="#FFFFFF" d="M53.1,1.9L53.1,1.9c0,0,0.1,0,0.2,0c0.1,0,0.2,0,0.2,0s-0.1,0-0.2,0C53.2,1.9,53.1,1.9,53.1,1.9z"/>
				<path fill="#FFFFFF" d="M53.1,1.8c0,0-0.2,0-0.4,0c-0.2,0-0.4,0.1-0.4,0.1S52.6,1.7,53.1,1.8c0.4-0.1,0.9,0,1.4,0.1
					c0.5,0.1,1,0.2,1.4,0.3c0.4,0.1,0.6,0.1,0.6,0.1l-0.1,0c0,0.1-0.8-0.1-1.7-0.3c-0.4-0.1-0.8-0.2-1.2-0.2
					C53.2,1.7,53,1.8,53.1,1.8z"/>
				<path fill="#FFFFFF" d="M52.9,1.9C52.7,2,52.5,2,52.3,2c-0.2,0-0.4,0.1-0.5,0.4c0.2-0.3,0.4-0.5,0.7-0.6c0,0,0.1,0,0.2,0
					C52.8,1.8,52.9,1.9,52.9,1.9z"/>
				<path fill="none" stroke="#000000" stroke-width="0" stroke-linecap="round" stroke-linejoin="round" d="M51.9,2.7
					c-0.1,0.1-0.1,0.4-0.2,0.5C51.7,3.1,51.8,2.8,51.9,2.7z"/>
				<path d="M52.2,3.3C52.2,3.3,52.2,3.4,52.2,3.3C52.2,3.4,52.2,3.3,52.2,3.3L52.2,3.3z"/>
				<path d="M52.2,3.3L52.2,3.3C52.2,3.3,52.2,3.3,52.2,3.3z"/>
				<path d="M52.2,3.4c0,0.1,0,0.2,0,0.2c0,0,0-0.1,0-0.1c0,0.1,0,0.3,0,0.3c0-0.2,0-0.2-0.1-0.2c0,0,0,0.1,0,0.2c0,0.1,0,0.2,0,0.2
					C52,3.9,52.2,3.7,52.2,3.4z"/>
				<path fill="none" stroke="#000000" stroke-width="0" stroke-linecap="round" stroke-linejoin="round" d="M52.3,4.5
					c0,0,0-0.1-0.1-0.2c0-0.1-0.1-0.2-0.1-0.2C52.2,4,52.3,4.4,52.3,4.5z"/>
				<path d="M52.2,5.1c0-0.1-0.1-0.5-0.1-0.3c0-0.1,0-0.1,0-0.2C52.1,4.9,52.2,4.6,52.2,5.1z"/>
				<path d="M52.1,4.7c0,0,0-0.1,0-0.1C52.1,4.6,52.1,4.6,52.1,4.7z"/>
				<path fill="none" stroke="#000000" stroke-width="0" stroke-linecap="round" stroke-linejoin="round" d="M53.8,2.1
					C53.8,2,53.8,2,53.8,2.1L53.8,2.1z"/>
				<path d="M52.2,6l0,0.2C52.3,6.1,52.2,6.1,52.2,6L52.2,6z"/>
				<path d="M61.1,1.7c-0.5,0.1-1,0.3-1.7,0.4c0,0.1-0.3,0-0.3,0.2c0.4,0-0.3,0-1.2,0c-0.8-0.1-1.7-0.1-1.3,0l0.2,0l-0.2,0.1
					c-0.4-0.1-0.9-0.3-1.2-0.2c0,0,0.8,0.2,1.7,0.2c0.9,0.1,1.7,0.2,1.6,0.1c0.2,0.1-1,0-2.3,0c-0.6,0-1.2-0.2-1.7-0.3
					C54.2,2,53.8,2,53.8,2l0-0.1c-0.6,0-1.1,0.2-1.4,0.4c0,0,0,0-0.1,0c0,0-0.1,0-0.1,0C52.5,2.2,52.6,2.1,53,2
					c-0.3,0-0.5,0.1-0.7,0.1c-0.2,0.1-0.3,0.2-0.5,0.4c0.1,0,0.1,0,0.2,0c0,0,0,0-0.1,0.3c-0.1,0.1-0.1,0-0.1,0c0,0-0.1,0-0.2,0.3
					c-0.1,0.3-0.1,0.5,0,0.6c0,0.1,0.1,0.2,0.1,0.5c0,0,0-0.1,0-0.2c0-0.1,0-0.2,0-0.2c0,0.2,0,0.6,0,0.8c0-0.3-0.1-0.9-0.2-0.9
					c0,0.3,0,0.8,0,1.1l-0.1-0.1c-0.1,0.3,0.1,0.4,0.1,0.7c0.1,0.3,0.1-0.2,0.2,0c0,0.1,0,0.6,0.1,0.8c0.2-0.2-0.2-0.7,0-1.1l0,0.5
					C52,6,51.6,4.8,51.8,4.9c0.3,0.4-0.1,0.9,0.2,1.2c0-0.3-0.1-1.1,0-1c0,0.3,0.1,0.5,0.2,0.9l0,0.5c0.1,0.2,0.1,0,0.1-0.1
					c0,0.7,0.3,1.9,0.2,2.9c0.1,0.6,0.1,0.1,0.2,0.3c-0.1,0.3,0.1,0.8,0.1,1.2c0,0.1,0.1,0.3,0.2,0.2l-0.1-0.8
					c0.1,0,0.2-0.1,0.1-0.4c-0.2,0.2,0-1.2-0.2-1.2l0.1,0l-0.2-1l0,0c0,0-0.2-0.9-0.2-1.5c0.1,0.2,0.1,1.1,0.2,0.5
					c0.1,0.4,0.1,1.2,0.3,2l0.1-0.2c0.2,0.8,0.2,1.9,0.2,2.9L53,11c0,0.3-0.1,0.8,0,1.1c0-0.4,0.1-0.2,0.1-0.1c0,0.3,0,0.6,0,1
					c0,0.2-0.1,0.4-0.1,0.6c0,0.2-0.1,0.3-0.1,0.5c0,0,0,0,0,0c0,0,0,0.2,0,0.4c0,0.2,0,0.3,0,0.3c-0.1,0.3-0.1,0.4-0.2,0.6
					c0,0.1,0,0.4,0.1,0.3c0-0.1,0-0.1,0-0.2c0.1,0.3,0,0.2,0.1,0.6c-0.1-0.3-0.1,0.1-0.2,0.1c0.1,0.4,0.2,0,0.2,0.1
					c0,0.3,0,0.4,0.1,0.5c0,0.1,0.1,0.2,0.2,0.4c0,0-0.2-0.2-0.1-0.3c0,0.1,0.1,0.2,0.2,0.2c0,0,0-0.1-0.1-0.1c0-0.1,0-0.1,0-0.1
					c0.1,0.2,0.2,0.3,0.4,0.4c0.2,0.1,0.4,0.1,0.8,0.1l-0.1,0c0,0,0.4,0,0.4,0l-0.1,0.1c0.2-0.1,0.5,0,0.6-0.1l-0.1,0l0.3-0.1
					l-0.3,0.2c0.4,0,0.8-0.4,1.4-0.7c0.1,0-0.2,0.2-0.4,0.3c-0.3,0.1-0.6,0.2-0.6,0.4c0.2,0,0.6-0.1,0.7-0.2c0,0-0.2,0-0.3,0.1
					c0.2-0.1,0.6-0.3,0.9-0.4c0.3-0.1,0.6-0.3,0.8-0.4l-0.5,0.1c0.5-0.2,0.9-0.1,1-0.3l-0.3,0.3c0.5-0.3,1.1-0.5,1.6-0.7
					c0-0.1-0.7,0.2-0.7,0.2l0.2-0.2c0.8-0.1,0.2,0,1.2-0.2l0-0.1c0.3,0,1.2-0.3,0.9,0l-0.3,0l0,0.1c0,0,0.3,0,0.6-0.1
					c0.3,0,0.6,0,0.6,0c-0.1,0,0.1,0.1,0.2,0.1c0.1,0,0.2,0.1,0.1,0.1l0.4,0c0.1,0.1-0.1,0.1-0.3,0.1c-0.2,0-0.5,0-0.5,0.1
					c0,0.1,0.2,0.1,0.3,0.1c-0.5,0.1-0.8-0.2-1.3-0.1L60.3,16l0-0.1c-0.2,0-0.4,0.2-0.4,0.2c-0.5-0.1-1,0.3-1.7,0.4
					c0.5-0.3-0.4,0-0.3-0.1c-0.3,0.1-1,0.6-1.3,0.6c-0.2,0,0.3-0.2-0.1-0.1c-0.3,0.1-0.4,0.3-0.2,0.2c-0.6,0.3-1.3,0.5-2,0.6
					l0.1-0.1c-0.4,0-0.8,0.1-1,0.2c0,0-0.1,0,0-0.1c-0.2-0.1-0.4-0.1-0.5-0.2c-0.2,0-0.4-0.2-0.6-0.5c-0.1,0.1,0.1,0.5,0.4,0.6
					l-0.1,0.1c0.3,0.3,0.7,0.4,1.1,0.4c0.4,0,0.8-0.1,1.1-0.2l-0.3,0.1c0.3,0,0.4,0,0.5-0.1c0.1-0.1,0.2-0.1,0.4-0.1
					c0.4-0.2-0.3,0,0-0.1c0.3-0.1,0,0.2,0.4,0.1c-0.4,0.2-0.9,0.3-1.3,0.4c-0.5,0.1-1,0.1-1.5-0.1c-0.2-0.1-0.5-0.2-0.7-0.4
					c-0.2-0.2-0.3-0.4-0.4-0.6c-0.2-0.5-0.3-1-0.3-1.4c0,0,0,0.1,0,0.2c-0.1-0.2-0.1-0.6,0-1.2c0-0.3,0.1-0.6,0.2-0.9
					c0-0.2,0.1-0.3,0.1-0.5l0.1-0.5c0.1-1.3,0-2.7-0.2-2.7c0-0.1,0.1,0.2,0.1-0.2c0,0-0.1-0.1-0.1,0c0.1-1-0.3-2.3-0.3-3.5
					c-0.1,0-0.1-0.2-0.2-0.2c0.1-0.4-0.2-1.1-0.1-1.5l-0.1,0.1c0,0,0-0.3-0.1-0.6c0-0.3,0-0.6,0-0.6c0,0,0,0.1,0,0.2
					c0-0.3,0.1-0.3,0.1-0.4c0,0,0-0.1,0-0.3c0-0.1,0-0.2,0-0.2c0-0.1,0-0.1,0-0.1c0.2-0.4,0.6-0.9,1.1-1c0.5-0.2,1-0.2,1.5-0.1
					c1,0.1,1.9,0.3,2.7,0.4c0.3-0.1,0.5-0.1,1-0.1l-0.2-0.1c0.5-0.1,0,0.1,0.4,0c0.3,0,0.1-0.2-0.3-0.1c-0.2-0.1-0.1-0.1,0.1-0.1
					c0.7,0.1,1.4,0.2,2,0.2C60,1.9,60.5,1.8,61.1,1.7z"/>
				<path d="M62.7,0.9c0.1,0-0.1,0-0.2,0.1c-0.2,0-0.3,0.1,0,0.1c0.2,0,0.4,0,0.6,0c0.2,0,0.4,0,0.7,0.1c0.5,0.1,1,0.4,1.4,0.8
					c0.4,0.4,0.5,1,0.6,1.4c0.1,0.5,0.1,0.9,0,1.3c-0.1,0.4-0.1,0.5-0.2,0.9c0,0,0,0,0.1,0c-0.1,0.4-0.1,1-0.2,1.4
					c0,0.1,0.1,0.2,0.1,0c0,0.3,0,0.5,0,0.7c0,0.2,0,0.4,0,0.6c0-0.3,0.1,0.3,0.1-0.1c0.1,0.6-0.2,0.6-0.2,1.1c0,0,0.1,0.1,0.1,0
					c-0.1,0.5,0.3,1.6,0.1,1.7l0.1,0.2c0,0.2-0.1,0.2-0.1,0.6c0.1,0.2,0.1,0,0.1,0.1c-0.1,0.1,0.1,0.8,0,1.1c-0.1,0,0.1-0.6,0-0.9
					c0,0,0,0,0,0.1c-0.2-1.6-0.1-2.9-0.3-4.2c0.1-0.3,0-0.5-0.1-0.6c0,0.1-0.1,0.3,0,0.5c0,0.2,0.1,0.4,0.2,0.4l-0.1,0.4
					c0,0.2-0.2,0.2-0.2,0.2c0-0.3-0.2-0.6-0.3-0.2c-0.1-0.8,0.4,0.2,0.3-0.5L65,8.1c0.1,0.1,0.1-0.5,0.1-0.7l0,0.1
					c-0.1-0.9,0.2-2,0.2-3.1c0-0.5-0.1-1.1-0.3-1.6c-0.2-0.5-0.7-0.8-1.2-0.9c-0.1-0.1-0.3-0.2-0.4-0.2c-0.2,0-0.4,0-0.6,0.1
					c-0.2,0-0.4,0.1-0.5,0.1c-0.2,0-0.3,0-0.4,0c-0.2,0.1,0.3,0-0.1,0.2c-0.2,0.1-0.2,0-0.2,0c-0.1,0-0.1,0.1-0.2,0.1
					c-0.1-0.1-0.1-0.3,0.1-0.5C61.5,1.4,61.9,1.1,62.7,0.9z"/>
			</g>
		</g>
		<g>
			<path fill="#FF1D25" d="M55.4,2.6c0,0,2,6.1,1,10"/>
			<g>
				<path d="M57.5,12.5c0-0.1-0.1-0.2-0.1-0.3c0.3-0.4-0.2-0.7-0.1-1c0-0.4-0.1-0.6,0-1c-0.5-0.1,0.1-0.7-0.3-0.9
					c-0.1-0.2-0.3-0.2-0.3-0.1c0-0.2,0.2-0.2,0.1-0.4l0.2,0.1c0-0.1,0.1-0.1,0.1-0.2L57,8.6c0.2-0.2-0.2-0.3-0.1-0.6
					c-0.1,0.2-0.1-0.1-0.2,0c0.1,0,0.1-0.2,0.1-0.1c0-0.2-0.3-0.4-0.1-0.5l-0.1-0.1c-0.1-0.1,0-0.2,0-0.4l-0.1,0
					c-0.1-0.1-0.1-0.2,0-0.3c0-0.2-0.2-0.4-0.4-0.6c0.1-0.2-0.2-0.1-0.3-0.3c0-0.1-0.1-0.3,0-0.4c0,0.2,0.3,0.1,0.3,0.3
					c0.1-0.1,0.2,0.3,0.2,0.1c-0.3-0.3-0.2-0.7-0.5-1c0.3,0,0.1-0.4,0-0.5l0.1,0c0-0.1,0-0.2-0.1-0.4c-0.1-0.2-0.2-0.4-0.1-0.6
					c0.1-0.3-0.3-0.6-0.5-0.6c-0.1,0.4,0.3,0.6,0,0.9c0-0.2-0.1-0.2-0.3-0.4L55,3.3l-0.1-0.1c-0.1,0.1-0.2,0-0.3,0l0.1,0.3
					c0-0.2,0.2-0.1,0.3-0.1l0,0.1c0,0,0-0.1,0.1-0.1c0,0.1,0.1,0.1,0,0.2l-0.2-0.1C55.1,3.8,54.8,4,55,4.1l-0.2,0.5l0.1,0.5h-0.1
					l0-0.2c0.1,0.1,0.2-0.1,0.2-0.1c0,0.1,0.1,0,0,0.1l-0.1-0.1l0,0.1c0-0.1,0.1,0,0.1,0c0,0.2,0,0.1-0.1,0.3c0.1,0.1,0,0.3,0.2,0.3
					c0,0.2,0,0.5,0,0.7l0.1,0.1c-0.1,0.3,0.1,0.4,0.2,0.6l-0.1,0L55.6,7c-0.1,0.2,0.2,0.3,0.1,0.5c0,0.3,0.2,0.4,0.4,0.4
					c0.1,0.1,0,0.3,0,0.4l-0.1-0.1l-0.1,0.1c0.1,0.2,0,0.2,0.1,0.4C55.8,9,56.2,9,56.3,9.1l-0.2,0.3l0,0c0.3,0.2,0.1,0.1,0.1,0.5
					l0.1,0c-0.2,0.1,0.1,0.2,0.1,0.4c0,0.1-0.2,0.3-0.1,0.5c-0.1,0.3,0,0.5,0,0.7c-0.1,0.1,0.7,0.3-0.3,0.3v0l0,0l0.3,0
					c-0.1,0.1,0,0.2-0.2,0.3l0.3,0.3c0-0.1,0-0.1,0.1-0.2l0,0c0-0.1,0-0.2,0.1-0.2l0,0.1c0.1-0.1,0.1,0,0.1,0
					c-0.1,0.2,0.1,0.1,0.1,0.3c0,0-0.1,0.1-0.1,0c0,0.1-0.2,0.3,0,0.3l0,0C56.9,12.6,57.2,12.6,57.5,12.5z"/>
			</g>
		</g>
		<g>
			<path fill="#FF1D25" d="M61.3,15.6c0,0,1-5.6-0.8-8.3"/>
			<g>
				<path d="M59.6,7.9c0.1,0,0.1,0,0.2,0.1c-0.1,0.3,0.4,0.2,0.5,0.5c0.1,0.2,0.2,0.4,0.2,0.7c0.5,0,0,0.5,0.4,0.6
					c0.1,0.1,0.3,0.2,0.4,0c0,0.2-0.2,0.2-0.1,0.3l-0.2,0c0,0.1-0.1,0.1-0.1,0.2l0.2,0.1c-0.2,0.2,0.2,0.3,0.1,0.5
					c0.1-0.1,0.1,0.1,0.2,0c-0.1,0-0.1,0.2-0.1,0.1c0,0.2,0.3,0.3,0,0.4l0.1,0.1c0.1,0.1,0,0.2-0.1,0.3l0.1,0c0.1,0.1,0,0.2,0,0.2
					c-0.1,0.2,0.2,0.4,0.3,0.6c-0.1,0.2,0.2,0.1,0.2,0.3c-0.1,0.1,0.1,0.3-0.1,0.3c0-0.1-0.3-0.2-0.2-0.3c-0.1,0.1-0.1-0.3-0.2-0.1
					c0.2,0.3,0,0.7,0.2,1c-0.3,0-0.2,0.5-0.2,0.5h-0.1c0,0-0.1,0.1,0,0.3c0,0.2,0,0.4-0.1,0.5c-0.2,0.2,0,0.5,0.2,0.6
					c0.3-0.3-0.1-0.6,0.4-0.7c-0.1,0.2,0,0.2,0.1,0.4l0.1-0.1l0,0.1c0.1,0,0.2,0.1,0.3,0.1l0-0.2c-0.1,0.1-0.2,0-0.3,0l0.1-0.1
					c0,0-0.1,0.1-0.1,0c0,0,0-0.1,0.1-0.2l0.2,0.1c-0.1-0.2,0.3-0.2,0.1-0.4l0.2,0l0-0.1l0.1,0l0-0.2c0-0.1-0.1-0.1-0.2-0.1
					c0-0.1,0-0.1,0-0.2l0.1,0.1l0-0.1c0,0.1-0.1-0.1-0.1-0.1c0-0.2,0-0.1,0.1-0.2c-0.1-0.1,0.1-0.3-0.1-0.3c0.1-0.2,0.1-0.4,0.1-0.6
					l-0.1-0.1c0.1-0.2,0-0.3-0.1-0.6l0,0l-0.1-0.1c0.1-0.2-0.2-0.3,0-0.5c0.1-0.2-0.1-0.3-0.3-0.4c-0.1-0.1,0-0.3,0-0.4l0.1,0.1
					l0.1-0.1c-0.1-0.1,0-0.2-0.1-0.3c0.1-0.3-0.3-0.2-0.4-0.3l0.2-0.3l0,0c-0.3-0.1-0.1-0.1-0.2-0.4l-0.1,0c0.1-0.1-0.1-0.1-0.1-0.3
					c0-0.1,0.1-0.3-0.1-0.4c0.1-0.3-0.4-0.3-0.4-0.5c0-0.2-0.2-0.1,0-0.3l0,0l0.2-0.1l-0.2,0.1c0-0.1-0.1-0.2,0-0.3c0,0-0.1,0-0.2,0
					c-0.1,0-0.2,0-0.2,0c0,0,0.1,0.1,0.1,0.1l0,0c0,0,0.1,0.1,0.1,0.2l-0.1,0c0,0.1-0.1,0.1-0.1,0.1c0-0.2-0.1-0.1-0.2-0.1
					c0,0,0-0.1,0.1-0.1c-0.1,0,0-0.3-0.2-0.2l0,0C60,7.5,59.8,7.7,59.6,7.9z"/>
			</g>
		</g>
		<path d="M83,33.1c0,0-1-7.1-10.5-8.8c0,0-5.9-0.3-1.5,1.9c0,0,0.8,0.5,3.5,0.7C77.3,27,80.7,28,83,33.1z"/>
	</g>
</g>
</svg>
